{"_id":{"$oid":"5e1722cfa726a13124486c6b"},"name":"https://www.google.com","description":"\"From Elizabeth\"...\nIf you want to search, you need to visit Google.com.","created_at":{"$date":{"$numberLong":"1578574543079"}},"updated_at":{"$date":{"$numberLong":"1578690807014"}}}
{"_id":{"$oid":"5e1722d3a726a13124486c6d"},"name":"https://www.facebook.com","description":"\"From Thomas\"...\nIf you would like to talk with friends, you need to visit this site.","created_at":{"$date":{"$numberLong":"1578574547123"}},"updated_at":{"$date":{"$numberLong":"1578690813604"}}}
{"_id":{"$oid":"5e1722d9a726a13124486c6f"},"name":"https://www.linkedin.com","description":"\"From Tom\"...\nIf you would like to talk with friends, you need to visit this site.","created_at":{"$date":{"$numberLong":"1578574553642"}},"updated_at":{"$date":{"$numberLong":"1578690821325"}}}
